{
  "testFiles": "**/*-test.js",
  "integrationFolder": "test/e2e",
  "fixturesFolder": "test/e2e/fixtures",
  "pluginsFile": "test/e2e/plugins",
  "screenshotsFolder": "test/e2e/screenshots",
  "supportFile": "test/e2e/support",
  "videosFolder": "test/e2e/videos"
}
